{
  "count": 710,
  "next": "http://marsweather.ingenology.com/v1/archive/?page=2",
  "previous": null,
  "results": [{
    "terrestrial_date": "2016-06-02",
    "sol": 1359,
    "ls": 162.0,
    "min_temp": -76.0,
    "min_temp_fahrenheit": -104.8,
    "max_temp": -13.0,
    "max_temp_fahrenheit": 8.6,
    "pressure": 737.0,
    "pressure_string": "Lower",
    "abs_humidity": null,
    "wind_speed": null,
    "wind_direction": "--",
    "atmo_opacity": "Sunny",
    "season": "Month 6",
    "sunrise": "2016-06-02T10:26:00Z",
    "sunset": "2016-06-02T22:21:00Z"
  }, {
    "terrestrial_date": "2016-06-01",
    "sol": 1358,
    "ls": 161.0,
    "min_temp": -74.0,
    "min_temp_fahrenheit": -101.2,
    "max_temp": -16.0,
    "max_temp_fahrenheit": 3.2,
    "pressure": 738.0,
    "pressure_string": "Lower",
    "abs_humidity": null,
    "wind_speed": null,
    "wind_direction": "--",
    "atmo_opacity": "Sunny",
    "season": "Month 6",
    "sunrise": "2016-06-01T10:26:00Z",
    "sunset": "2016-06-01T22:21:00Z"
  }, {
    "terrestrial_date": "2016-05-31",
    "sol": 1357,
    "ls": 160.0,
    "min_temp": -72.0,
    "min_temp_fahrenheit": -97.6,
    "max_temp": -18.0,
    "max_temp_fahrenheit": -0.4,
    "pressure": 746.0,
    "pressure_string": "Lower",
    "abs_humidity": null,
    "wind_speed": null,
    "wind_direction": "--",
    "atmo_opacity": "Sunny",
    "season": "Month 6",
    "sunrise": "2016-05-31T10:26:00Z",
    "sunset": "2016-05-31T22:21:00Z"
  }, {
    "terrestrial_date": "2016-05-29",
    "sol": 1355,
    "ls": 159.0,
    "min_temp": -75.0,
    "min_temp_fahrenheit": -103.0,
    "max_temp": -11.0,
    "max_temp_fahrenheit": 12.2,
    "pressure": 740.0,
    "pressure_string": "Lower",
    "abs_humidity": null,
    "wind_speed": null,
    "wind_direction": "--",
    "atmo_opacity": "Sunny",
    "season": "Month 6",
    "sunrise": "2016-05-29T10:26:00Z",
    "sunset": "2016-05-29T22:21:00Z"
  }, {
    "terrestrial_date": "2016-05-28",
    "sol": 1354,
    "ls": 159.0,
    "min_temp": -75.0,
    "min_temp_fahrenheit": -103.0,
    "max_temp": -5.0,
    "max_temp_fahrenheit": 23.0,
    "pressure": 739.0,
    "pressure_string": "Lower",
    "abs_humidity": null,
    "wind_speed": null,
    "wind_direction": "--",
    "atmo_opacity": "Sunny",
    "season": "Month 6",
    "sunrise": "2016-05-28T10:27:00Z",
    "sunset": "2016-05-28T22:21:00Z"
  }, {
    "terrestrial_date": "2016-05-25",
    "sol": 1351,
    "ls": 157.0,
    "min_temp": -72.0,
    "min_temp_fahrenheit": -97.6,
    "max_temp": -12.0,
    "max_temp_fahrenheit": 10.4,
    "pressure": 739.0,
    "pressure_string": "Lower",
    "abs_humidity": null,
    "wind_speed": null,
    "wind_direction": "--",
    "atmo_opacity": "Sunny",
    "season": "Month 6",
    "sunrise": "2016-05-25T10:27:00Z",
    "sunset": "2016-05-25T22:21:00Z"
  }, {
    "terrestrial_date": "2016-05-24",
    "sol": 1350,
    "ls": 157.0,
    "min_temp": -73.0,
    "min_temp_fahrenheit": -99.4,
    "max_temp": -9.0,
    "max_temp_fahrenheit": 15.8,
    "pressure": 738.0,
    "pressure_string": "Lower",
    "abs_humidity": null,
    "wind_speed": null,
    "wind_direction": "--",
    "atmo_opacity": "Sunny",
    "season": "Month 6",
    "sunrise": "2016-05-24T10:27:00Z",
    "sunset": "2016-05-24T22:21:00Z"
  }, {
    "terrestrial_date": "2016-05-23",
    "sol": 1349,
    "ls": 156.0,
    "min_temp": -73.0,
    "min_temp_fahrenheit": -99.4,
    "max_temp": -9.0,
    "max_temp_fahrenheit": 15.8,
    "pressure": 737.0,
    "pressure_string": "Lower",
    "abs_humidity": null,
    "wind_speed": null,
    "wind_direction": "--",
    "atmo_opacity": "Sunny",
    "season": "Month 6",
    "sunrise": "2016-05-23T10:28:00Z",
    "sunset": "2016-05-23T22:21:00Z"
  }, {
    "terrestrial_date": "2016-05-22",
    "sol": 1348,
    "ls": 156.0,
    "min_temp": -76.0,
    "min_temp_fahrenheit": -104.8,
    "max_temp": -22.0,
    "max_temp_fahrenheit": -7.6,
    "pressure": 742.0,
    "pressure_string": "Lower",
    "abs_humidity": null,
    "wind_speed": null,
    "wind_direction": "--",
    "atmo_opacity": "Sunny",
    "season": "Month 6",
    "sunrise": "2016-05-22T10:28:00Z",
    "sunset": "2016-05-22T22:21:00Z"
  }, {
    "terrestrial_date": "2016-05-18",
    "sol": 1344,
    "ls": 153.0,
    "min_temp": -75.0,
    "min_temp_fahrenheit": -103.0,
    "max_temp": -14.0,
    "max_temp_fahrenheit": 6.8,
    "pressure": 734.0,
    "pressure_string": "Lower",
    "abs_humidity": null,
    "wind_speed": null,
    "wind_direction": "--",
    "atmo_opacity": "Sunny",
    "season": "Month 6",
    "sunrise": "2016-05-18T10:29:00Z",
    "sunset": "2016-05-18T22:22:00Z"
  }]
}
